Verilog/L5/public/vcd/wave_podium_permutations_valid.vcd
$date
	Wed Sep 17 15:39:31 2025
$end
$version
	Icarus Verilog
$end
$timescale
	1ps
$end
$scope module tb_podium_permutations $end
$var wire 1 ! VALID $end
$var wire 1 " POI $end
$var wire 8 # IMAP [7:0] $end
$var reg 2 $ N0 [1:0] $end
$var reg 2 % N1 [1:0] $end
$var reg 2 & N2 [1:0] $end
$var reg 2 ' N3 [1:0] $end
$var integer 32 ( i [31:0] $end
$var integer 32 ) j [31:0] $end
$var integer 32 * k [31:0] $end
$var integer 32 + l [31:0] $end
$scope module uut $end
$var wire 2 , N0 [1:0] $end
$var wire 2 - N1 [1:0] $end
$var wire 2 . N2 [1:0] $end
$var wire 2 / N3 [1:0] $end
$var wire 1 " POI $end
$var wire 1 ! VALID $end
$var wire 1 0 t6 $end
$var wire 1 1 t5 $end
$var wire 1 2 t4 $end
$var wire 1 3 t3 $end
$var wire 1 4 t2 $end
$var wire 1 5 t1 $end
$var wire 8 6 IMAP [7:0] $end
$scope module ie1 $end
$var wire 2 7 A [1:0] $end
$var wire 2 8 B [1:0] $end
$var wire 1 5 Y $end
$upscope $end
$scope module ie2 $end
$var wire 2 9 A [1:0] $end
$var wire 2 : B [1:0] $end
$var wire 1 4 Y $end
$upscope $end
$scope module ie3 $end
$var wire 2 ; A [1:0] $end
$var wire 2 < B [1:0] $end
$var wire 1 3 Y $end
$upscope $end
$scope module ie5 $end
$var wire 2 = A [1:0] $end
$var wire 2 > B [1:0] $end
$var wire 1 2 Y $end
$upscope $end
$scope module ie6 $end
$var wire 2 ? A [1:0] $end
$var wire 2 @ B [1:0] $end
$var wire 1 1 Y $end
$upscope $end
$scope module ie8 $end
$var wire 2 A A [1:0] $end
$var wire 2 B B [1:0] $end
$var wire 1 0 Y $end
$upscope $end
$upscope $end
$upscope $end
$enddefinitions $end
#0
$dumpvars
bx B
bx A
bx @
bx ?
bx >
bx =
bx <
bx ;
bx :
bx 9
bx 8
bx 7
bx 6
x5
x4
x3
x2
x1
x0
bx /
bx .
bx -
bx ,
bx +
bx *
bx )
bx (
bx '
bx &
bx %
bx $
bx #
0"
x!
$end
#10000
0!
10
12
11
15
14
13
b0 #
b0 6
b0 '
b0 /
b0 <
b0 @
b0 B
b0 &
b0 .
b0 :
b0 >
b0 A
b0 %
b0 -
b0 8
b0 =
b0 ?
b0 $
b0 ,
b0 7
b0 9
b0 ;
b0 +
b0 *
b0 )
b0 (
#20000
03
01
00
b10000000 #
b10000000 6
b1 '
b1 /
b1 <
b1 @
b1 B
b1 +
#30000
b1000000 #
b1000000 6
b10 '
b10 /
b10 <
b10 @
b10 B
b10 +
#40000
b11000000 #
b11000000 6
b11 '
b11 /
b11 <
b11 @
b11 B
b11 +
#50000
13
11
04
02
b10000 #
b10000 6
b0 '
b0 /
b0 <
b0 @
b0 B
b1 &
b1 .
b1 :
b1 >
b1 A
b1 *
b0 +
#60000
03
01
10
b10010000 #
b10010000 6
b1 '
b1 /
b1 <
b1 @
b1 B
b1 +
#70000
00
b1010000 #
b1010000 6
b10 '
b10 /
b10 <
b10 @
b10 B
b10 +
#80000
b11010000 #
b11010000 6
b11 '
b11 /
b11 <
b11 @
b11 B
b11 +
#90000
13
11
b100000 #
b100000 6
b0 '
b0 /
b0 <
b0 @
b0 B
b10 &
b10 .
b10 :
b10 >
b10 A
b10 *
b0 +
#100000
03
01
b10100000 #
b10100000 6
b1 '
b1 /
b1 <
b1 @
b1 B
b1 +
#110000
10
b1100000 #
b1100000 6
b10 '
b10 /
b10 <
b10 @
b10 B
b10 +
#120000
00
b11100000 #
b11100000 6
b11 '
b11 /
b11 <
b11 @
b11 B
b11 +
#130000
13
11
b110000 #
b110000 6
b0 '
b0 /
b0 <
b0 @
b0 B
b11 &
b11 .
b11 :
b11 >
b11 A
b11 *
b0 +
#140000
03
01
b10110000 #
b10110000 6
b1 '
b1 /
b1 <
b1 @
b1 B
b1 +
#150000
b1110000 #
b1110000 6
b10 '
b10 /
b10 <
b10 @
b10 B
b10 +
#160000
10
b11110000 #
b11110000 6
b11 '
b11 /
b11 <
b11 @
b11 B
b11 +
#170000
13
14
05
b100 #
b100 6
b0 '
b0 /
b0 <
b0 @
b0 B
b0 &
b0 .
b0 :
b0 >
b0 A
b1 %
b1 -
b1 8
b1 =
b1 ?
b1 )
b0 *
b0 +
#180000
03
11
00
b10000100 #
b10000100 6
b1 '
b1 /
b1 <
b1 @
b1 B
b1 +
#190000
01
b1000100 #
b1000100 6
b10 '
b10 /
b10 <
b10 @
b10 B
b10 +
#200000
b11000100 #
b11000100 6
b11 '
b11 /
b11 <
b11 @
b11 B
b11 +
#210000
13
04
12
b10100 #
b10100 6
b0 '
b0 /
b0 <
b0 @
b0 B
b1 &
b1 .
b1 :
b1 >
b1 A
b1 *
b0 +
#220000
03
11
10
b10010100 #
b10010100 6
b1 '
b1 /
b1 <
b1 @
b1 B
b1 +
#230000
01
00
b1010100 #
b1010100 6
b10 '
b10 /
b10 <
b10 @
b10 B
b10 +
#240000
b11010100 #
b11010100 6
b11 '
b11 /
b11 <
b11 @
b11 B
b11 +
#250000
0!
13
02
b100100 #
b100100 6
b0 '
b0 /
b0 <
b0 @
b0 B
b10 &
b10 .
b10 :
b10 >
b10 A
b10 *
b0 +
#260000
03
11
b10100100 #
b10100100 6
b1 '
b1 /
b1 <
b1 @
b1 B
b1 +
#270000
01
10
b1100100 #
b1100100 6
b10 '
b10 /
b10 <
b10 @
b10 B
b10 +
#280000
1!
00
b11100100 #
b11100100 6
b11 '
b11 /
b11 <
b11 @
b11 B
b11 +
#290000
0!
13
b110100 #
b110100 6
b0 '
b0 /
b0 <
b0 @
b0 B
b11 &
b11 .
b11 :
b11 >
b11 A
b11 *
b0 +
#300000
03
11
b10110100 #
b10110100 6
b1 '
b1 /
b1 <
b1 @
b1 B
b1 +
#310000
1!
01
b1110100 #
b1110100 6
b10 '
b10 /
b10 <
b10 @
b10 B
b10 +
#320000
0!
10
b11110100 #
b11110100 6
b11 '
b11 /
b11 <
b11 @
b11 B
b11 +
#330000
13
14
b1000 #
b1000 6
b0 '
b0 /
b0 <
b0 @
b0 B
b0 &
b0 .
b0 :
b0 >
b0 A
b10 %
b10 -
b10 8
b10 =
b10 ?
b10 )
b0 *
b0 +
#340000
03
00
b10001000 #
b10001000 6
b1 '
b1 /
b1 <
b1 @
b1 B
b1 +
#350000
11
b1001000 #
b1001000 6
b10 '
b10 /
b10 <
b10 @
b10 B
b10 +
#360000
01
b11001000 #
b11001000 6
b11 '
b11 /
b11 <
b11 @
b11 B
b11 +
#370000
13
04
b11000 #
b11000 6
b0 '
b0 /
b0 <
b0 @
b0 B
b1 &
b1 .
b1 :
b1 >
b1 A
b1 *
b0 +
#380000
03
10
b10011000 #
b10011000 6
b1 '
b1 /
b1 <
b1 @
b1 B
b1 +
#390000
0!
11
00
b1011000 #
b1011000 6
b10 '
b10 /
b10 <
b10 @
b10 B
b10 +
#400000
1!
01
b11011000 #
b11011000 6
b11 '
b11 /
b11 <
b11 @
b11 B
b11 +
#410000
0!
13
12
b101000 #
b101000 6
b0 '
b0 /
b0 <
b0 @
b0 B
b10 &
b10 .
b10 :
b10 >
b10 A
b10 *
b0 +
#420000
03
b10101000 #
b10101000 6
b1 '
b1 /
b1 <
b1 @
b1 B
b1 +
#430000
11
10
b1101000 #
b1101000 6
b10 '
b10 /
b10 <
b10 @
b10 B
b10 +
#440000
01
00
b11101000 #
b11101000 6
b11 '
b11 /
b11 <
b11 @
b11 B
b11 +
#450000
0!
13
02
b111000 #
b111000 6
b0 '
b0 /
b0 <
b0 @
b0 B
b11 &
b11 .
b11 :
b11 >
b11 A
b11 *
b0 +
#460000
1!
03
b10111000 #
b10111000 6
b1 '
b1 /
b1 <
b1 @
b1 B
b1 +
#470000
0!
11
b1111000 #
b1111000 6
b10 '
b10 /
b10 <
b10 @
b10 B
b10 +
#480000
01
10
b11111000 #
b11111000 6
b11 '
b11 /
b11 <
b11 @
b11 B
b11 +
#490000
13
14
b1100 #
b1100 6
b0 '
b0 /
b0 <
b0 @
b0 B
b0 &
b0 .
b0 :
b0 >
b0 A
b11 %
b11 -
b11 8
b11 =
b11 ?
b11 )
b0 *
b0 +
#500000
03
00
b10001100 #
b10001100 6
b1 '
b1 /
b1 <
b1 @
b1 B
b1 +
#510000
b1001100 #
b1001100 6
b10 '
b10 /
b10 <
b10 @
b10 B
b10 +
#520000
11
b11001100 #
b11001100 6
b11 '
b11 /
b11 <
b11 @
b11 B
b11 +
#530000
13
01
04
b11100 #
b11100 6
b0 '
b0 /
b0 <
b0 @
b0 B
b1 &
b1 .
b1 :
b1 >
b1 A
b1 *
b0 +
#540000
03
10
b10011100 #
b10011100 6
b1 '
b1 /
b1 <
b1 @
b1 B
b1 +
#550000
1!
00
b1011100 #
b1011100 6
b10 '
b10 /
b10 <
b10 @
b10 B
b10 +
#560000
0!
11
b11011100 #
b11011100 6
b11 '
b11 /
b11 <
b11 @
b11 B
b11 +
#570000
0!
13
01
b101100 #
b101100 6
b0 '
b0 /
b0 <
b0 @
b0 B
b10 &
b10 .
b10 :
b10 >
b10 A
b10 *
b0 +
#580000
1!
03
b10101100 #
b10101100 6
b1 '
b1 /
b1 <
b1 @
b1 B
b1 +
#590000
0!
10
b1101100 #
b1101100 6
b10 '
b10 /
b10 <
b10 @
b10 B
b10 +
#600000
0!
11
00
b11101100 #
b11101100 6
b11 '
b11 /
b11 <
b11 @
b11 B
b11 +
#610000
13
01
12
b111100 #
b111100 6
b0 '
b0 /
b0 <
b0 @
b0 B
b11 &
b11 .
b11 :
b11 >
b11 A
b11 *
b0 +
#620000
03
b10111100 #
b10111100 6
b1 '
b1 /
b1 <
b1 @
b1 B
b1 +
#630000
b1111100 #
b1111100 6
b10 '
b10 /
b10 <
b10 @
b10 B
b10 +
#640000
11
10
b11111100 #
b11111100 6
b11 '
b11 /
b11 <
b11 @
b11 B
b11 +
#650000
b1 #
b1 6
b0 '
b0 /
b0 <
b0 @
b0 B
b0 &
b0 .
b0 :
b0 >
b0 A
b0 %
b0 -
b0 8
b0 =
b0 ?
b1 $
b1 ,
b1 7
b1 9
b1 ;
b1 (
b0 )
b0 *
b0 +
#660000
13
01
00
b10000001 #
b10000001 6
b1 '
b1 /
b1 <
b1 @
b1 B
b1 +
#670000
03
b1000001 #
b1000001 6
b10 '
b10 /
b10 <
b10 @
b10 B
b10 +
#680000
b11000001 #
b11000001 6
b11 '
b11 /
b11 <
b11 @
b11 B
b11 +
#690000
11
14
02
b10001 #
b10001 6
b0 '
b0 /
b0 <
b0 @
b0 B
b1 &
b1 .
b1 :
b1 >
b1 A
b1 *
b0 +
#700000
13
01
10
b10010001 #
b10010001 6
b1 '
b1 /
b1 <
b1 @
b1 B
b1 +
#710000
03
00
b1010001 #
b1010001 6
b10 '
b10 /
b10 <
b10 @
b10 B
b10 +
#720000
b11010001 #
b11010001 6
b11 '
b11 /
b11 <
b11 @
b11 B
b11 +
#730000
11
04
b100001 #
b100001 6
b0 '
b0 /
b0 <
b0 @
b0 B
b10 &
b10 .
b10 :
b10 >
b10 A
b10 *
b0 +
#740000
0!
13
01
b10100001 #
b10100001 6
b1 '
b1 /
b1 <
b1 @
b1 B
b1 +
#750000
03
10
b1100001 #
b1100001 6
b10 '
b10 /
b10 <
b10 @
b10 B
b10 +
#760000
1!
00
b11100001 #
b11100001 6
b11 '
b11 /
b11 <
b11 @
b11 B
b11 +
#770000
0!
11
b110001 #
b110001 6
b0 '
b0 /
b0 <
b0 @
b0 B
b11 &
b11 .
b11 :
b11 >
b11 A
b11 *
b0 +
#780000
0!
13
01
b10110001 #
b10110001 6
b1 '
b1 /
b1 <
b1 @
b1 B
b1 +
#790000
1!
03
b1110001 #
b1110001 6
b10 '
b10 /
b10 <
b10 @
b10 B
b10 +
#800000
0!
10
b11110001 #
b11110001 6
b11 '
b11 /
b11 <
b11 @
b11 B
b11 +
#810000
15
b101 #
b101 6
b0 '
b0 /
b0 <
b0 @
b0 B
b0 &
b0 .
b0 :
b0 >
b0 A
b1 %
b1 -
b1 8
b1 =
b1 ?
b1 )
b0 *
b0 +
#820000
13
11
00
b10000101 #
b10000101 6
b1 '
b1 /
b1 <
b1 @
b1 B
b1 +
#830000
03
01
b1000101 #
b1000101 6
b10 '
b10 /
b10 <
b10 @
b10 B
b10 +
#840000
b11000101 #
b11000101 6
b11 '
b11 /
b11 <
b11 @
b11 B
b11 +
#850000
14
12
b10101 #
b10101 6
b0 '
b0 /
b0 <
b0 @
b0 B
b1 &
b1 .
b1 :
b1 >
b1 A
b1 *
b0 +
#860000
13
11
10
b10010101 #
b10010101 6
b1 '
b1 /
b1 <
b1 @
b1 B
b1 +
#870000
03
01
00
b1010101 #
b1010101 6
b10 '
b10 /
b10 <
b10 @
b10 B
b10 +
#880000
b11010101 #
b11010101 6
b11 '
b11 /
b11 <
b11 @
b11 B
b11 +
#890000
04
02
b100101 #
b100101 6
b0 '
b0 /
b0 <
b0 @
b0 B
b10 &
b10 .
b10 :
b10 >
b10 A
b10 *
b0 +
#900000
13
11
b10100101 #
b10100101 6
b1 '
b1 /
b1 <
b1 @
b1 B
b1 +
#910000
03
01
10
b1100101 #
b1100101 6
b10 '
b10 /
b10 <
b10 @
b10 B
b10 +
#920000
00
b11100101 #
b11100101 6
b11 '
b11 /
b11 <
b11 @
b11 B
b11 +
#930000
b110101 #
b110101 6
b0 '
b0 /
b0 <
b0 @
b0 B
b11 &
b11 .
b11 :
b11 >
b11 A
b11 *
b0 +
#940000
13
11
b10110101 #
b10110101 6
b1 '
b1 /
b1 <
b1 @
b1 B
b1 +
#950000
03
01
b1110101 #
b1110101 6
b10 '
b10 /
b10 <
b10 @
b10 B
b10 +
#960000
10
b11110101 #
b11110101 6
b11 '
b11 /
b11 <
b11 @
b11 B
b11 +
#970000
05
b1001 #
b1001 6
b0 '
b0 /
b0 <
b0 @
b0 B
b0 &
b0 .
b0 :
b0 >
b0 A
b10 %
b10 -
b10 8
b10 =
b10 ?
b10 )
b0 *
b0 +
#980000
0!
13
00
b10001001 #
b10001001 6
b1 '
b1 /
b1 <
b1 @
b1 B
b1 +
#990000
03
11
b1001001 #
b1001001 6
b10 '
b10 /
b10 <
b10 @
b10 B
b10 +
#1000000
1!
01
b11001001 #
b11001001 6
b11 '
b11 /
b11 <
b11 @
b11 B
b11 +
#1010000
0!
14
b11001 #
b11001 6
b0 '
b0 /
b0 <
b0 @
b0 B
b1 &
b1 .
b1 :
b1 >
b1 A
b1 *
b0 +
#1020000
13
10
b10011001 #
b10011001 6
b1 '
b1 /
b1 <
b1 @
b1 B
b1 +
#1030000
03
11
00
b1011001 #
b1011001 6
b10 '
b10 /
b10 <
b10 @
b10 B
b10 +
#1040000
01
b11011001 #
b11011001 6
b11 '
b11 /
b11 <
b11 @
b11 B
b11 +
#1050000
04
12
b101001 #
b101001 6
b0 '
b0 /
b0 <
b0 @
b0 B
b10 &
b10 .
b10 :
b10 >
b10 A
b10 *
b0 +
#1060000
13
b10101001 #
b10101001 6
b1 '
b1 /
b1 <
b1 @
b1 B
b1 +
#1070000
03
11
10
b1101001 #
b1101001 6
b10 '
b10 /
b10 <
b10 @
b10 B
b10 +
#1080000
01
00
b11101001 #
b11101001 6
b11 '
b11 /
b11 <
b11 @
b11 B
b11 +
#1090000
1!
02
b111001 #
b111001 6
b0 '
b0 /
b0 <
b0 @
b0 B
b11 &
b11 .
b11 :
b11 >
b11 A
b11 *
b0 +
#1100000
0!
13
b10111001 #
b10111001 6
b1 '
b1 /
b1 <
b1 @
b1 B
b1 +
#1110000
03
11
b1111001 #
b1111001 6
b10 '
b10 /
b10 <
b10 @
b10 B
b10 +
#1120000
01
10
b11111001 #
b11111001 6
b11 '
b11 /
b11 <
b11 @
b11 B
b11 +
#1130000
b1101 #
b1101 6
b0 '
b0 /
b0 <
b0 @
b0 B
b0 &
b0 .
b0 :
b0 >
b0 A
b11 %
b11 -
b11 8
b11 =
b11 ?
b11 )
b0 *
b0 +
#1140000
0!
13
00
b10001101 #
b10001101 6
b1 '
b1 /
b1 <
b1 @
b1 B
b1 +
#1150000
1!
03
b1001101 #
b1001101 6
b10 '
b10 /
b10 <
b10 @
b10 B
b10 +
#1160000
0!
11
b11001101 #
b11001101 6
b11 '
b11 /
b11 <
b11 @
b11 B
b11 +
#1170000
0!
01
14
b11101 #
b11101 6
b0 '
b0 /
b0 <
b0 @
b0 B
b1 &
b1 .
b1 :
b1 >
b1 A
b1 *
b0 +
#1180000
13
10
b10011101 #
b10011101 6
b1 '
b1 /
b1 <
b1 @
b1 B
b1 +
#1190000
03
00
b1011101 #
b1011101 6
b10 '
b10 /
b10 <
b10 @
b10 B
b10 +
#1200000
11
b11011101 #
b11011101 6
b11 '
b11 /
b11 <
b11 @
b11 B
b11 +
#1210000
1!
01
04
b101101 #
b101101 6
b0 '
b0 /
b0 <
b0 @
b0 B
b10 &
b10 .
b10 :
b10 >
b10 A
b10 *
b0 +
#1220000
0!
13
b10101101 #
b10101101 6
b1 '
b1 /
b1 <
b1 @
b1 B
b1 +
#1230000
03
10
b1101101 #
b1101101 6
b10 '
b10 /
b10 <
b10 @
b10 B
b10 +
#1240000
0!
11
00
b11101101 #
b11101101 6
b11 '
b11 /
b11 <
b11 @
b11 B
b11 +
#1250000
01
12
b111101 #
b111101 6
b0 '
b0 /
b0 <
b0 @
b0 B
b11 &
b11 .
b11 :
b11 >
b11 A
b11 *
b0 +
#1260000
13
b10111101 #
b10111101 6
b1 '
b1 /
b1 <
b1 @
b1 B
b1 +
#1270000
03
b1111101 #
b1111101 6
b10 '
b10 /
b10 <
b10 @
b10 B
b10 +
#1280000
11
10
b11111101 #
b11111101 6
b11 '
b11 /
b11 <
b11 @
b11 B
b11 +
#1290000
b10 #
b10 6
b0 '
b0 /
b0 <
b0 @
b0 B
b0 &
b0 .
b0 :
b0 >
b0 A
b0 %
b0 -
b0 8
b0 =
b0 ?
b10 $
b10 ,
b10 7
b10 9
b10 ;
b10 (
b0 )
b0 *
b0 +
#1300000
01
00
b10000010 #
b10000010 6
b1 '
b1 /
b1 <
b1 @
b1 B
b1 +
#1310000
13
b1000010 #
b1000010 6
b10 '
b10 /
b10 <
b10 @
b10 B
b10 +
#1320000
03
b11000010 #
b11000010 6
b11 '
b11 /
b11 <
b11 @
b11 B
b11 +
#1330000
11
02
b10010 #
b10010 6
b0 '
b0 /
b0 <
b0 @
b0 B
b1 &
b1 .
b1 :
b1 >
b1 A
b1 *
b0 +
#1340000
01
10
b10010010 #
b10010010 6
b1 '
b1 /
b1 <
b1 @
b1 B
b1 +
#1350000
0!
13
00
b1010010 #
b1010010 6
b10 '
b10 /
b10 <
b10 @
b10 B
b10 +
#1360000
1!
03
b11010010 #
b11010010 6
b11 '
b11 /
b11 <
b11 @
b11 B
b11 +
#1370000
0!
11
14
b100010 #
b100010 6
b0 '
b0 /
b0 <
b0 @
b0 B
b10 &
b10 .
b10 :
b10 >
b10 A
b10 *
b0 +
#1380000
01
b10100010 #
b10100010 6
b1 '
b1 /
b1 <
b1 @
b1 B
b1 +
#1390000
13
10
b1100010 #
b1100010 6
b10 '
b10 /
b10 <
b10 @
b10 B
b10 +
#1400000
03
00
b11100010 #
b11100010 6
b11 '
b11 /
b11 <
b11 @
b11 B
b11 +
#1410000
11
04
b110010 #
b110010 6
b0 '
b0 /
b0 <
b0 @
b0 B
b11 &
b11 .
b11 :
b11 >
b11 A
b11 *
b0 +
#1420000
1!
01
b10110010 #
b10110010 6
b1 '
b1 /
b1 <
b1 @
b1 B
b1 +
#1430000
0!
13
b1110010 #
b1110010 6
b10 '
b10 /
b10 <
b10 @
b10 B
b10 +
#1440000
03
10
b11110010 #
b11110010 6
b11 '
b11 /
b11 <
b11 @
b11 B
b11 +
#1450000
b110 #
b110 6
b0 '
b0 /
b0 <
b0 @
b0 B
b0 &
b0 .
b0 :
b0 >
b0 A
b1 %
b1 -
b1 8
b1 =
b1 ?
b1 )
b0 *
b0 +
#1460000
0!
11
00
b10000110 #
b10000110 6
b1 '
b1 /
b1 <
b1 @
b1 B
b1 +
#1470000
0!
13
01
b1000110 #
b1000110 6
b10 '
b10 /
b10 <
b10 @
b10 B
b10 +
#1480000
1!
03
b11000110 #
b11000110 6
b11 '
b11 /
b11 <
b11 @
b11 B
b11 +
#1490000
0!
12
b10110 #
b10110 6
b0 '
b0 /
b0 <
b0 @
b0 B
b1 &
b1 .
b1 :
b1 >
b1 A
b1 *
b0 +
#1500000
11
10
b10010110 #
b10010110 6
b1 '
b1 /
b1 <
b1 @
b1 B
b1 +
#1510000
13
01
00
b1010110 #
b1010110 6
b10 '
b10 /
b10 <
b10 @
b10 B
b10 +
#1520000
03
b11010110 #
b11010110 6
b11 '
b11 /
b11 <
b11 @
b11 B
b11 +
#1530000
0!
14
02
b100110 #
b100110 6
b0 '
b0 /
b0 <
b0 @
b0 B
b10 &
b10 .
b10 :
b10 >
b10 A
b10 *
b0 +
#1540000
11
b10100110 #
b10100110 6
b1 '
b1 /
b1 <
b1 @
b1 B
b1 +
#1550000
13
01
10
b1100110 #
b1100110 6
b10 '
b10 /
b10 <
b10 @
b10 B
b10 +
#1560000
03
00
b11100110 #
b11100110 6
b11 '
b11 /
b11 <
b11 @
b11 B
b11 +
#1570000
1!
04
b110110 #
b110110 6
b0 '
b0 /
b0 <
b0 @
b0 B
b11 &
b11 .
b11 :
b11 >
b11 A
b11 *
b0 +
#1580000
0!
11
b10110110 #
b10110110 6
b1 '
b1 /
b1 <
b1 @
b1 B
b1 +
#1590000
0!
13
01
b1110110 #
b1110110 6
b10 '
b10 /
b10 <
b10 @
b10 B
b10 +
#1600000
03
10
b11110110 #
b11110110 6
b11 '
b11 /
b11 <
b11 @
b11 B
b11 +
#1610000
15
b1010 #
b1010 6
b0 '
b0 /
b0 <
b0 @
b0 B
b0 &
b0 .
b0 :
b0 >
b0 A
b10 %
b10 -
b10 8
b10 =
b10 ?
b10 )
b0 *
b0 +
#1620000
00
b10001010 #
b10001010 6
b1 '
b1 /
b1 <
b1 @
b1 B
b1 +
#1630000
13
11
b1001010 #
b1001010 6
b10 '
b10 /
b10 <
b10 @
b10 B
b10 +
#1640000
03
01
b11001010 #
b11001010 6
b11 '
b11 /
b11 <
b11 @
b11 B
b11 +
#1650000
b11010 #
b11010 6
b0 '
b0 /
b0 <
b0 @
b0 B
b1 &
b1 .
b1 :
b1 >
b1 A
b1 *
b0 +
#1660000
10
b10011010 #
b10011010 6
b1 '
b1 /
b1 <
b1 @
b1 B
b1 +
#1670000
13
11
00
b1011010 #
b1011010 6
b10 '
b10 /
b10 <
b10 @
b10 B
b10 +
#1680000
03
01
b11011010 #
b11011010 6
b11 '
b11 /
b11 <
b11 @
b11 B
b11 +
#1690000
14
12
b101010 #
b101010 6
b0 '
b0 /
b0 <
b0 @
b0 B
b10 &
b10 .
b10 :
b10 >
b10 A
b10 *
b0 +
#1700000
b10101010 #
b10101010 6
b1 '
b1 /
b1 <
b1 @
b1 B
b1 +
#1710000
13
11
10
b1101010 #
b1101010 6
b10 '
b10 /
b10 <
b10 @
b10 B
b10 +
#1720000
03
01
00
b11101010 #
b11101010 6
b11 '
b11 /
b11 <
b11 @
b11 B
b11 +
#1730000
04
02
b111010 #
b111010 6
b0 '
b0 /
b0 <
b0 @
b0 B
b11 &
b11 .
b11 :
b11 >
b11 A
b11 *
b0 +
#1740000
b10111010 #
b10111010 6
b1 '
b1 /
b1 <
b1 @
b1 B
b1 +
#1750000
13
11
b1111010 #
b1111010 6
b10 '
b10 /
b10 <
b10 @
b10 B
b10 +
#1760000
03
01
10
b11111010 #
b11111010 6
b11 '
b11 /
b11 <
b11 @
b11 B
b11 +
#1770000
05
b1110 #
b1110 6
b0 '
b0 /
b0 <
b0 @
b0 B
b0 &
b0 .
b0 :
b0 >
b0 A
b11 %
b11 -
b11 8
b11 =
b11 ?
b11 )
b0 *
b0 +
#1780000
1!
00
b10001110 #
b10001110 6
b1 '
b1 /
b1 <
b1 @
b1 B
b1 +
#1790000
0!
13
b1001110 #
b1001110 6
b10 '
b10 /
b10 <
b10 @
b10 B
b10 +
#1800000
03
11
b11001110 #
b11001110 6
b11 '
b11 /
b11 <
b11 @
b11 B
b11 +
#1810000
1!
01
b11110 #
b11110 6
b0 '
b0 /
b0 <
b0 @
b0 B
b1 &
b1 .
b1 :
b1 >
b1 A
b1 *
b0 +
#1820000
0!
10
b10011110 #
b10011110 6
b1 '
b1 /
b1 <
b1 @
b1 B
b1 +
#1830000
0!
13
00
b1011110 #
b1011110 6
b10 '
b10 /
b10 <
b10 @
b10 B
b10 +
#1840000
03
11
b11011110 #
b11011110 6
b11 '
b11 /
b11 <
b11 @
b11 B
b11 +
#1850000
0!
01
14
b101110 #
b101110 6
b0 '
b0 /
b0 <
b0 @
b0 B
b10 &
b10 .
b10 :
b10 >
b10 A
b10 *
b0 +
#1860000
b10101110 #
b10101110 6
b1 '
b1 /
b1 <
b1 @
b1 B
b1 +
#1870000
13
10
b1101110 #
b1101110 6
b10 '
b10 /
b10 <
b10 @
b10 B
b10 +
#1880000
03
11
00
b11101110 #
b11101110 6
b11 '
b11 /
b11 <
b11 @
b11 B
b11 +
#1890000
01
04
12
b111110 #
b111110 6
b0 '
b0 /
b0 <
b0 @
b0 B
b11 &
b11 .
b11 :
b11 >
b11 A
b11 *
b0 +
#1900000
b10111110 #
b10111110 6
b1 '
b1 /
b1 <
b1 @
b1 B
b1 +
#1910000
13
b1111110 #
b1111110 6
b10 '
b10 /
b10 <
b10 @
b10 B
b10 +
#1920000
03
11
10
b11111110 #
b11111110 6
b11 '
b11 /
b11 <
b11 @
b11 B
b11 +
#1930000
b11 #
b11 6
b0 '
b0 /
b0 <
b0 @
b0 B
b0 &
b0 .
b0 :
b0 >
b0 A
b0 %
b0 -
b0 8
b0 =
b0 ?
b11 $
b11 ,
b11 7
b11 9
b11 ;
b11 (
b0 )
b0 *
b0 +
#1940000
01
00
b10000011 #
b10000011 6
b1 '
b1 /
b1 <
b1 @
b1 B
b1 +
#1950000
b1000011 #
b1000011 6
b10 '
b10 /
b10 <
b10 @
b10 B
b10 +
#1960000
13
b11000011 #
b11000011 6
b11 '
b11 /
b11 <
b11 @
b11 B
b11 +
#1970000
03
11
02
b10011 #
b10011 6
b0 '
b0 /
b0 <
b0 @
b0 B
b1 &
b1 .
b1 :
b1 >
b1 A
b1 *
b0 +
#1980000
01
10
b10010011 #
b10010011 6
b1 '
b1 /
b1 <
b1 @
b1 B
b1 +
#1990000
1!
00
b1010011 #
b1010011 6
b10 '
b10 /
b10 <
b10 @
b10 B
b10 +
#2000000
0!
13
b11010011 #
b11010011 6
b11 '
b11 /
b11 <
b11 @
b11 B
b11 +
#2010000
03
11
b100011 #
b100011 6
b0 '
b0 /
b0 <
b0 @
b0 B
b10 &
b10 .
b10 :
b10 >
b10 A
b10 *
b0 +
#2020000
1!
01
b10100011 #
b10100011 6
b1 '
b1 /
b1 <
b1 @
b1 B
b1 +
#2030000
0!
10
b1100011 #
b1100011 6
b10 '
b10 /
b10 <
b10 @
b10 B
b10 +
#2040000
0!
13
00
b11100011 #
b11100011 6
b11 '
b11 /
b11 <
b11 @
b11 B
b11 +
#2050000
03
11
14
b110011 #
b110011 6
b0 '
b0 /
b0 <
b0 @
b0 B
b11 &
b11 .
b11 :
b11 >
b11 A
b11 *
b0 +
#2060000
01
b10110011 #
b10110011 6
b1 '
b1 /
b1 <
b1 @
b1 B
b1 +
#2070000
b1110011 #
b1110011 6
b10 '
b10 /
b10 <
b10 @
b10 B
b10 +
#2080000
13
10
b11110011 #
b11110011 6
b11 '
b11 /
b11 <
b11 @
b11 B
b11 +
#2090000
03
04
b111 #
b111 6
b0 '
b0 /
b0 <
b0 @
b0 B
b0 &
b0 .
b0 :
b0 >
b0 A
b1 %
b1 -
b1 8
b1 =
b1 ?
b1 )
b0 *
b0 +
#2100000
0!
11
00
b10000111 #
b10000111 6
b1 '
b1 /
b1 <
b1 @
b1 B
b1 +
#2110000
1!
01
b1000111 #
b1000111 6
b10 '
b10 /
b10 <
b10 @
b10 B
b10 +
#2120000
0!
13
b11000111 #
b11000111 6
b11 '
b11 /
b11 <
b11 @
b11 B
b11 +
#2130000
03
12
b10111 #
b10111 6
b0 '
b0 /
b0 <
b0 @
b0 B
b1 &
b1 .
b1 :
b1 >
b1 A
b1 *
b0 +
#2140000
11
10
b10010111 #
b10010111 6
b1 '
b1 /
b1 <
b1 @
b1 B
b1 +
#2150000
01
00
b1010111 #
b1010111 6
b10 '
b10 /
b10 <
b10 @
b10 B
b10 +
#2160000
13
b11010111 #
b11010111 6
b11 '
b11 /
b11 <
b11 @
b11 B
b11 +
#2170000
1!
03
02
b100111 #
b100111 6
b0 '
b0 /
b0 <
b0 @
b0 B
b10 &
b10 .
b10 :
b10 >
b10 A
b10 *
b0 +
#2180000
0!
11
b10100111 #
b10100111 6
b1 '
b1 /
b1 <
b1 @
b1 B
b1 +
#2190000
01
10
b1100111 #
b1100111 6
b10 '
b10 /
b10 <
b10 @
b10 B
b10 +
#2200000
0!
13
00
b11100111 #
b11100111 6
b11 '
b11 /
b11 <
b11 @
b11 B
b11 +
#2210000
03
14
b110111 #
b110111 6
b0 '
b0 /
b0 <
b0 @
b0 B
b11 &
b11 .
b11 :
b11 >
b11 A
b11 *
b0 +
#2220000
11
b10110111 #
b10110111 6
b1 '
b1 /
b1 <
b1 @
b1 B
b1 +
#2230000
01
b1110111 #
b1110111 6
b10 '
b10 /
b10 <
b10 @
b10 B
b10 +
#2240000
13
10
b11110111 #
b11110111 6
b11 '
b11 /
b11 <
b11 @
b11 B
b11 +
